\relax 
\@writefile{toc}{\contentsline {section}{\numberline {1}Interface de autenticação}{1}{}\protected@file@percent }
\@writefile{lol}{\contentsline {lstlisting}{../iauthentication.h}{1}{}\protected@file@percent }
\@writefile{toc}{\contentsline {subsection}{\numberline {1.1}Defines}{2}{}\protected@file@percent }
\@writefile{toc}{\contentsline {subsection}{\numberline {1.2}Enum authentication\_system}{2}{}\protected@file@percent }
\@writefile{toc}{\contentsline {subsection}{\numberline {1.3}Authentication\_status signUp}{2}{}\protected@file@percent }
\@writefile{toc}{\contentsline {subsection}{\numberline {1.4}Authentication\_status login}{2}{}\protected@file@percent }
\@writefile{toc}{\contentsline {subsection}{\numberline {1.5}Authentication\_status removeUser}{2}{}\protected@file@percent }
\gdef \@abspage@last{2}
